{
  "1043": [
    {
      "email": "anishchelsea96@yahoo.com",
      "id": 4216788549725
    }
  ],
  "1044": [
    {
      "email": "anishchelsea96@yahoo.com",
      "id": 4217160925277
    }
  ],
  "1072": [
    {
      "email": "yash@sigmasolve.net",
      "id": 4231471562845
    }
  ],
  "1089": [
    {
      "email": "yash@sigmasolve.net",
      "id": 4237446250589
    }
  ],
  "1090": [
    {
      "email": "yash@sigmasolve.net",
      "id": 4243060555869
    }
  ],
  "1091": [
    {
      "email": "ron@sigmasolve.net",
      "id": 4244465090653
    }
  ],
  "1092": [
    {
      "email": "joe@sigmasolve.net",
      "id": 4244476952669
    }
  ],
  "1093": [
    {
      "email": "anishpatel@sigmasolve.net",
      "id": 4244480360541
    }
  ],
  "1094": [
    {
      "email": "anishpatel@sigmasolve.net",
      "id": 4244505428061
    }
  ],
  "1095": [
    {
      "email": "yash@sigmasolve.net",
      "id": 4249391857757
    }
  ],
  "1096": [
    {
      "email": "yashkinariwalask95@gmail.com",
      "id": 4249541443677
    }
  ],
  "1097": [
    {
      "email": "yash2@sigmasolve.net",
      "id": 4249591218269
    }
  ],
  "1146": [
    {
      "email": "chad+030722@freshmealplan.com",
      "id": 4249714393181
    }
  ],
  "1147": [
    {
      "email": "chad+030722_1@freshmealplan.com",
      "id": 4249747554397
    }
  ],
  "1148": [
    {
      "email": "hollyhands@att.net",
      "id": 4251199799389
    }
  ],
  "1150": [
    {
      "email": "yash3@sigmasolve.net",
      "id": 4251482816605
    }
  ],
  "10022": [
    {
      "email": "hollyhands@att.net",
      "id": 4237345292381
    },
    {
      "email": "hollyhands@att.net",
      "id": 4237323534429
    }
  ],
  "111111": [
    {
      "email": "hollyhands@att.net",
      "id": 4237382844509
    },
    {
      "email": "hollyhands@att.net",
      "id": 4237381304413
    },
    {
      "email": "hollyhands@att.net",
      "id": 4237377372253
    },
    {
      "email": "hollyhands@att.net",
      "id": 4237329760349
    },
    {
      "email": "hollyhands@att.net",
      "id": 4231339966557
    },
    {
      "email": "hollyhands@att.net",
      "id": 4230156091485
    },
    {
      "email": "hollyhands@att.net",
      "id": 4230069223517
    }
  ],
  "111112": [
    {
      "email": "Tsitsagi@yahoo.com",
      "id": 4237383008349
    },
    {
      "email": "Tsitsagi@yahoo.com",
      "id": 4237381468253
    },
    {
      "email": "Tsitsagi@yahoo.com",
      "id": 4237377601629
    },
    {
      "email": "Tsitsagi@yahoo.com",
      "id": 4237329891421
    },
    {
      "email": "Tsitsagi@yahoo.com",
      "id": 4231340195933
    },
    {
      "email": "Tsitsagi@yahoo.com",
      "id": 4230156746845
    },
    {
      "email": "Tsitsagi@yahoo.com",
      "id": 4230069485661
    }
  ],
  "1111125-NE": [
    {
      "email": "hollyhands@att.net",
      "id": 4251201175645
    },
    {
      "email": "hollyhands@att.net",
      "id": 4237319045213
    },
    {
      "email": "hollyhands@att.net",
      "id": 4237318684765
    },
    {
      "email": "hollyhands@att.net",
      "id": 4229482643549
    },
    {
      "email": "hollyhands@att.net",
      "id": 4229482020957
    }
  ],
  "999995-NE": [
    {
      "email": "samuel1223.sj@gmail.com",
      "id": 4249698992221
    }
  ],
  "999994-NE": [
    {
      "email": "jjamieso@maine.rr.com",
      "id": 4249698697309
    }
  ],
  "999993-NE": [
    {
      "email": "jimhannesschlager@gmail.com",
      "id": 4249698566237
    }
  ],
  "999992-NE": [
    {
      "email": "kimtallarico@gmail.com",
      "id": 4249698336861
    }
  ],
  "999991-NE": [
    {
      "email": "ashleyltolisano@gmail.com",
      "id": 4249698238557
    }
  ],
  "235394-NE": [
    {
      "email": "klhayes80memberships@yahoo.com",
      "id": 4249677660253
    }
  ],
  "235393-NE": [
    {
      "email": "divinequeeng@aol.com",
      "id": 4249677529181
    }
  ],
  "235392-NE": [
    {
      "email": "alicia302@gmail.com",
      "id": 4249677267037
    }
  ],
  "235391-NE": [
    {
      "email": "gingeralynch@gmail.com",
      "id": 4249677103197
    }
  ],
  "235386-NE": [
    {
      "email": "jennym9472@gmail.com",
      "id": 4249676316765
    }
  ],
  "235385-NE": [
    {
      "email": "marblasing@gmail.com",
      "id": 4249676185693
    }
  ],
  "235384-NE": [
    {
      "email": "rsomra@us.ibm.com",
      "id": 4249675923549
    }
  ],
  "235383-NE": [
    {
      "email": "saconeja@aol.com",
      "id": 4249675694173
    }
  ],
  "235378-NE": [
    {
      "email": "limas2011@yahoo.com",
      "id": 4249675235421
    }
  ],
  "235358-NE": [
    {
      "email": "samuel1223.sj@gmail.com",
      "id": 4249675071581
    },
    {
      "email": "jjamieso@maine.rr.com",
      "id": 4249672679517
    },
    {
      "email": "jjamieso@maine.rr.com",
      "id": 4249656295517
    },
    {
      "email": "jjamieso@maine.rr.com",
      "id": 4230220972125
    }
  ],
  "235376-NE": [
    {
      "email": "amber.a.rae@gmail.com",
      "id": 4249675038813
    }
  ],
  "235375-NE": [
    {
      "email": "gatortrailers@aol.com",
      "id": 4249674907741
    }
  ],
  "235357-NE": [
    {
      "email": "jjamieso@maine.rr.com",
      "id": 4249674874973
    },
    {
      "email": "jimhannesschlager@gmail.com",
      "id": 4249672515677
    },
    {
      "email": "jimhannesschlager@gmail.com",
      "id": 4249656197213
    },
    {
      "email": "jimhannesschlager@gmail.com",
      "id": 4230219858013
    }
  ],
  "235374-NE": [
    {
      "email": "plo90@hotmail.com",
      "id": 4249674842205
    }
  ],
  "235355-NE": [
    {
      "email": "jimhannesschlager@gmail.com",
      "id": 4249674809437
    },
    {
      "email": "mnagy70@gmail.com",
      "id": 4249672286301
    },
    {
      "email": "mnagy70@gmail.com",
      "id": 4249656066141
    },
    {
      "email": "mnagy70@gmail.com",
      "id": 4230218088541
    }
  ],
  "235354-NE": [
    {
      "email": "mnagy70@gmail.com",
      "id": 4249674711133
    },
    {
      "email": "cabray26@gmail.com",
      "id": 4249671991389
    },
    {
      "email": "cabray26@gmail.com",
      "id": 4249655902301
    },
    {
      "email": "cabray26@gmail.com",
      "id": 4230217007197
    }
  ],
  "235373-NE": [
    {
      "email": "jgilliam066@gmail.com",
      "id": 4249674678365
    }
  ],
  "235372-NE": [
    {
      "email": "bronson.wc@gmail.com",
      "id": 4249674514525
    }
  ],
  "235353-NE": [
    {
      "email": "cabray26@gmail.com",
      "id": 4249674481757
    },
    {
      "email": "kimtallarico@gmail.com",
      "id": 4249671762013
    },
    {
      "email": "kimtallarico@gmail.com",
      "id": 4249655803997
    },
    {
      "email": "kimtallarico@gmail.com",
      "id": 4230216187997
    }
  ],
  "235352-NE": [
    {
      "email": "kimtallarico@gmail.com",
      "id": 4249674350685
    },
    {
      "email": "morganeframe@gmail.com",
      "id": 4249671434333
    },
    {
      "email": "morganeframe@gmail.com",
      "id": 4230215008349
    }
  ],
  "235370-NE": [
    {
      "email": "docamalfi@gmail.com",
      "id": 4249674252381
    }
  ],
  "235351-NE": [
    {
      "email": "ashleyltolisano@gmail.com",
      "id": 4262017892445
    },
    {
      "email": "ashleyltolisano@gmail.com",
      "id": 4262018089053
    },
    {
      "email": "ashleyltolisano@gmail.com",
      "id": 4262015959133
    },
    {
      "email": "ashleyltolisano@gmail.com",
      "id": 4230213697629
    }
  ],
  "235368-NE": [
    {
      "email": "mslangston04@yahoo.com",
      "id": 4249674055773
    },
    {
      "email": "mslangston04@yahoo.com",
      "id": 4230233981021
    }
  ],
  "235367-NE": [
    {
      "email": "jmjones05@yahoo.com",
      "id": 4249673859165
    },
    {
      "email": "jmjones05@yahoo.com",
      "id": 4230232571997
    }
  ],
  "235365-NE": [
    {
      "email": "terrysmith951@yahoo.com",
      "id": 4249673662557
    },
    {
      "email": "terrysmith951@yahoo.com",
      "id": 4230230442077
    }
  ],
  "235364-NE": [
    {
      "email": "fwolak12@gmail.com",
      "id": 4249673498717
    },
    {
      "email": "fwolak12@gmail.com",
      "id": 4230229065821
    }
  ],
  "235363-NE": [
    {
      "email": "tflores880s@hotmail.com",
      "id": 4249673302109
    },
    {
      "email": "tflores880s@hotmail.com",
      "id": 4230227918941
    }
  ],
  "235361-NE": [
    {
      "email": "matthew@competitivetelecoms.com",
      "id": 4249673105501
    },
    {
      "email": "matthew@competitivetelecoms.com",
      "id": 4230225035357
    }
  ],
  "235359-NE": [
    {
      "email": "samuel1223.sj@gmail.com",
      "id": 4249672843357
    },
    {
      "email": "samuel1223.sj@gmail.com",
      "id": 4249656721501
    },
    {
      "email": "samuel1223.sj@gmail.com",
      "id": 4230222250077
    }
  ],
  "10236-NE": [
    {
      "email": "hollyhands@att.net",
      "id": 4237346242653
    }
  ],
  "100235-NE": [
    {
      "email": "hollyhands@att.net",
      "id": 4237344931933
    }
  ],
  "236467-NE": [
    {
      "email": "hollyhands@att.net",
      "id": 4237328646237
    },
    {
      "email": "hollyhands@att.net",
      "id": 4237327401053
    }
  ],
  "235366-NE": [
    {
      "email": "cmatty16@gmail.com",
      "id": 4230231621725
    },
    {
      "email": "hollyhands@att.net",
      "id": 4262001803357
    }
  ],
  "235362-NE": [
    {
      "email": "rjwalworth17@gmail.com",
      "id": 4230226706525
    }
  ],
  "235360-NE": [
    {
      "email": "jleejlee@gmail.com",
      "id": 4230223691869
    }
  ],
  "235356-NE": [
    {
      "email": "caligirlshops-online@yahoo.com",
      "id": 4230219268189
    }
  ],
  "2303899-NE": [
    {
      "email": "hollyhands@att.net",
      "id": 4224715128925
    }
  ],
  "230384-NE": [
    {
      "email": "hollyhands@att.net",
      "id": 4215859576925
    }
  ],
  "230413-NE": [
    {
      "email": "jodilwilson71@yahoo.com",
      "id": 4215837130845
    }
  ],
  "3331149-NE": [
    {
      "email": "hollyhands@att.net",
      "id": 4215788044381
    }
  ],
  "2221149-NE": [
    {
      "email": "hollyhands@att.net",
      "id": 4215766220893
    }
  ]
}