Name,Email,Financial Status,Fulfillment Status,Currency,Buyer Accepts Marketing,Cancel Reason,Cancelled At,Closed At,Tags,Note,Phone,Referring Site,Processed At,Source name,Total weight,Total Tax,Shipping Company,Shipping Name,Shipping Phone,Shipping First Name,Shipping Last Name,Shipping Address1,Shipping Address2,Shipping City,Shipping Province,Shipping Province Code,Shipping Zip,Shipping Country,Shipping Country Code,Billing Company,Billing Name,Billing Phone,Billing First Name,Billing Last Name,Billing Address1,Billing Address2,Billing City,Billing Province,Billing Province Code,Billing Zip,Billing Country,Billing Country Code,Lineitem name,Lineitem variant id,Lineitem quantity,Lineitem price,Lineitem variant title,Lineitem compare at price,Lineitem sku,Lineitem requires shipping,Lineitem taxable,Lineitem fulfillment status,Taxes Included,Tax 1 Title,Tax 1 Price,Tax 1 Rate,Tax 2 Title,Tax 2 Price,Tax 2 Rate,Tax 3 Title,Tax 3 Price,Tax 3 Rate,Transaction Amount,Transaction Kind,Transaction Status,Transaction Processed At,Transaction Gateway,Transaction Location Id,Transaction Source Name,Shipping Line Code,Shipping Line Price,Shipping Line Source,Shipping Line Title,Shipping Line Carrier Identifier,Shipping Line Requested Fulfillment Service Id,Shipping Tax 1 Title,Shipping Tax 1 Rate,Shipping Tax 1 Price,Discount Code,Discount Amount,Discount Type,Metafield Namespace,Metafield Key,Metafield Value,Metafield Value Type
203224,dandhking0929@comcast.net,paid,fulfilled,US,TRUE,,,,,,239-272-6402,www.freshmealplan.com,2021-06-13T18:22:30Z,,,0,,Hilary,239-272-6402,Hilary,King,1060 29th ST SW,,NAPLES,Florida,FL,34117,United States,US,,Hilary,239-272-6402,Hilary,King,1060 29th ST SW,,NAPLES,Florida,FL,34117,United States,US,Sirloin Steak Italiano,40139293261996 ,1,13.95,XL,0,M7479,TRUE,FALSE,fulfilled,TRUE,,,,,,,,,,94.6,sale,success,2021-06-13T18:22:30Z,Authorize.Net,,,,0,,,,,,0,0,OTF0391,9.46,fixed_amount,,,,
203224,,,,,,,,,,,,,,,,,,,,,,,,,,,,,,,,,,,,,,,,,,,Cuban Turkey Burger,40139294179500 ,1,12.95,XL,0,M7038,TRUE,FALSE,fulfilled,TRUE,,,,,,,,,,,,,,,,,,,,,,,,,,,,,,,,
203224,,,,,,,,,,,,,,,,,,,,,,,,,,,,,,,,,,,,,,,,,,,Pineapple BBQ Chicken,40139285397676 ,1,12.95,XL,0,M11745,TRUE,FALSE,fulfilled,TRUE,,,,,,,,,,,,,,,,,,,,,,,,,,,,,,,,
203224,,,,,,,,,,,,,,,,,,,,,,,,,,,,,,,,,,,,,,,,,,,Citrus Grilled Chicken Quinoa Bowl,40139285594284 ,1,10.95,Regular,0,M11742,TRUE,FALSE,fulfilled,TRUE,,,,,,,,,,,,,,,,,,,,,,,,,,,,,,,,
203224,,,,,,,,,,,,,,,,,,,,,,,,,,,,,,,,,,,,,,,,,,,Citrus Herb Chicken,40139287855276 ,1,11.95,XL,0,M10876,TRUE,FALSE,fulfilled,TRUE,,,,,,,,,,,,,,,,,,,,,,,,,,,,,,,,
203224,,,,,,,,,,,,,,,,,,,,,,,,,,,,,,,,,,,,,,,,,,,Chicken Francaise,40139296342188 ,1,11.95,XL,0,M1835,TRUE,FALSE,fulfilled,TRUE,,,,,,,,,,,,,,,,,,,,,,,,,,,,,,,,
203224,,,,,,,,,,,,,,,,,,,,,,,,,,,,,,,,,,,,,,,,,,,Chicken Salad - 1 LB,40139306401964 ,1,8.95,Regular,0,E11557,TRUE,FALSE,fulfilled,TRUE,,,,,,,,,,,,,,,,,,,,,,,,,,,,,,,,
203224,,,,,,,,,,,,,,,,,,,,,,,,,,,,,,,,,,,,,,,,,,,Shrimp Pasta,40139288412332 ,1,10.95,Regular,0,M11504,TRUE,FALSE,fulfilled,TRUE,,,,,,,,,,,,,,,,,,,,,,,,,,,,,,,,
235921,alysafox16@gmail.com,paid,fulfilled,US,TRUE,,,,,Order generated by Chefs choice (Auto Generated),815-394-9883,www.freshmealplan.com,2021-12-07T06:24:15Z,,,0,,Alysa,815-394-9883,Alysa,Fox,4928 Elizabeth Ct.,,Oak Forest,Illinois,IL,60452,United States,US,,Alysa,815-394-9883,Alysa,Fox,4928 Elizabeth Ct.,,Oak Forest,Illinois,IL,60452,United States,US,Steak with Brown Rice,40139288576172 ,1,9.99,Regular,0,M11484,TRUE,FALSE,fulfilled,TRUE,,,,,,,,,,139.86,sale,success,2021-12-07T06:24:15Z,Authorize.Net,,,,0,,,,,,0,0,downsfitness,6.99,fixed_amount,,,,
235921,,,,,,,,,,,,,,,,,,,,,,,,,,,,,,,,,,,,,,,,,,,Lemon Pepper Cod,40139288871084 ,1,9.99,Regular,0,M11506,TRUE,FALSE,fulfilled,TRUE,,,,,,,,,,,,,,,,,,,,,,,,,,,,,,,,
235921,,,,,,,,,,,,,,,,,,,,,,,,,,,,,,,,,,,,,,,,,,,Sirloin Burger with Sweet Potato,40139289198764 ,1,9.99,Regular,0,M11486,TRUE,FALSE,fulfilled,TRUE,,,,,,,,,,,,,,,,,,,,,,,,,,,,,,,,
235921,,,,,,,,,,,,,,,,,,,,,,,,,,,,,,,,,,,,,,,,,,,Blackened Grilled Chicken,40139288314028 ,1,9.99,Regular,0,M11498,TRUE,FALSE,fulfilled,TRUE,,,,,,,,,,,,,,,,,,,,,,,,,,,,,,,,
235921,,,,,,,,,,,,,,,,,,,,,,,,,,,,,,,,,,,,,,,,,,,Steak with Sweet Potato,40139285266604 ,1,9.99,Regular,0,M11724,TRUE,FALSE,fulfilled,TRUE,,,,,,,,,,,,,,,,,,,,,,,,,,,,,,,,
235921,,,,,,,,,,,,,,,,,,,,,,,,,,,,,,,,,,,,,,,,,,,Salmon Sliders with White Rice,40139285659820 ,1,9.99,Regular,0,M11734,TRUE,FALSE,fulfilled,TRUE,,,,,,,,,,,,,,,,,,,,,,,,,,,,,,,,
235921,,,,,,,,,,,,,,,,,,,,,,,,,,,,,,,,,,,,,,,,,,,Turkey Chili,40139288641708 ,1,9.99,Regular,0,M11502,TRUE,FALSE,fulfilled,TRUE,,,,,,,,,,,,,,,,,,,,,,,,,,,,,,,,
235921,,,,,,,,,,,,,,,,,,,,,,,,,,,,,,,,,,,,,,,,,,,Shrimp Pasta,40139288412332 ,1,9.99,Regular,0,M11504,TRUE,FALSE,fulfilled,TRUE,,,,,,,,,,,,,,,,,,,,,,,,,,,,,,,,
235921,,,,,,,,,,,,,,,,,,,,,,,,,,,,,,,,,,,,,,,,,,,Beef Sliders with Broccoli & Brown Rice,40139285528748 ,1,9.99,Regular,0,M11726,TRUE,FALSE,fulfilled,TRUE,,,,,,,,,,,,,,,,,,,,,,,,,,,,,,,,
235921,,,,,,,,,,,,,,,,,,,,,,,,,,,,,,,,,,,,,,,,,,,Basil Grilled Chicken,40139288608940 ,1,9.99,Regular,0,M11492,TRUE,FALSE,fulfilled,TRUE,,,,,,,,,,,,,,,,,,,,,,,,,,,,,,,,
235921,,,,,,,,,,,,,,,,,,,,,,,,,,,,,,,,,,,,,,,,,,,Lemon Thyme Chicken,40139289264300 ,1,9.99,Regular,0,M11488,TRUE,FALSE,fulfilled,TRUE,,,,,,,,,,,,,,,,,,,,,,,,,,,,,,,,
235921,,,,,,,,,,,,,,,,,,,,,,,,,,,,,,,,,,,,,,,,,,,Blackened Grilled Chicken,40139288314028 ,1,9.99,Regular,0,M11498,TRUE,FALSE,fulfilled,TRUE,,,,,,,,,,,,,,,,,,,,,,,,,,,,,,,,
235921,,,,,,,,,,,,,,,,,,,,,,,,,,,,,,,,,,,,,,,,,,,Steak with Sweet Potato,40139285266604 ,1,9.99,Regular,0,M11724,TRUE,FALSE,fulfilled,TRUE,,,,,,,,,,,,,,,,,,,,,,,,,,,,,,,,
235921,,,,,,,,,,,,,,,,,,,,,,,,,,,,,,,,,,,,,,,,,,,Salmon Sliders with White Rice,40139285659820 ,1,9.99,Regular,0,M11734,TRUE,FALSE,fulfilled,TRUE,,,,,,,,,,,,,,,,,,,,,,,,,,,,,,,,
235659,mrsyoung0527@gmail.com,paid,fulfilled,US,TRUE,,,,,Order generated by Chefs choice (Auto Generated),708-508-8382,www.freshmealplan.com,2021-12-07T06:18:39Z,,,0,,Timitra,708-508-8382,Timitra,Young,3003 Balmoral Cres,,Flossmoor,Illinois,IL,60422,United States,US,,Timitra,708-508-8382,Timitra,Young,3003 Balmoral Cres,,Flossmoor,Illinois,IL,60422,United States,US,Steak with Brown Rice,40139288576172 ,1,9.99,Regular,0,M11484,TRUE,FALSE,fulfilled,TRUE,,,,,,,,,,139.86,sale,success,2021-12-07T06:18:39Z,Authorize.Net,,,,0,,,,,,0,0,downsfitness,6.99,fixed_amount,,,,
235659,,,,,,,,,,,,,,,,,,,,,,,,,,,,,,,,,,,,,,,,,,,Sirloin Burger with Sweet Potato,40139289198764 ,1,9.99,Regular,0,M11486,TRUE,FALSE,fulfilled,TRUE,,,,,,,,,,,,,,,,,,,,,,,,,,,,,,,,
235659,,,,,,,,,,,,,,,,,,,,,,,,,,,,,,,,,,,,,,,,,,,Lemon Pepper Cod,40139288871084 ,1,9.99,Regular,0,M11506,TRUE,FALSE,fulfilled,TRUE,,,,,,,,,,,,,,,,,,,,,,,,,,,,,,,,
235659,,,,,,,,,,,,,,,,,,,,,,,,,,,,,,,,,,,,,,,,,,,Salmon Sliders with White Rice,40139285659820 ,1,9.99,Regular,0,M11734,TRUE,FALSE,fulfilled,TRUE,,,,,,,,,,,,,,,,,,,,,,,,,,,,,,,,
235659,,,,,,,,,,,,,,,,,,,,,,,,,,,,,,,,,,,,,,,,,,,Beef Sliders with Broccoli & Brown Rice,40139285528748 ,1,9.99,Regular,0,M11726,TRUE,FALSE,fulfilled,TRUE,,,,,,,,,,,,,,,,,,,,,,,,,,,,,,,,
235659,,,,,,,,,,,,,,,,,,,,,,,,,,,,,,,,,,,,,,,,,,,Basil Grilled Chicken,40139288608940 ,1,9.99,Regular,0,M11492,TRUE,FALSE,fulfilled,TRUE,,,,,,,,,,,,,,,,,,,,,,,,,,,,,,,,
235659,,,,,,,,,,,,,,,,,,,,,,,,,,,,,,,,,,,,,,,,,,,Blackened Grilled Chicken,40139288314028 ,1,9.99,Regular,0,M11498,TRUE,FALSE,fulfilled,TRUE,,,,,,,,,,,,,,,,,,,,,,,,,,,,,,,,
235659,,,,,,,,,,,,,,,,,,,,,,,,,,,,,,,,,,,,,,,,,,,Steak with Sweet Potato,40139285266604 ,1,9.99,Regular,0,M11724,TRUE,FALSE,fulfilled,TRUE,,,,,,,,,,,,,,,,,,,,,,,,,,,,,,,,
235659,,,,,,,,,,,,,,,,,,,,,,,,,,,,,,,,,,,,,,,,,,,Turkey Chili,40139288641708 ,1,9.99,Regular,0,M11502,TRUE,FALSE,fulfilled,TRUE,,,,,,,,,,,,,,,,,,,,,,,,,,,,,,,,
235659,,,,,,,,,,,,,,,,,,,,,,,,,,,,,,,,,,,,,,,,,,,Lemon Thyme Chicken,40139289264300 ,1,9.99,Regular,0,M11488,TRUE,FALSE,fulfilled,TRUE,,,,,,,,,,,,,,,,,,,,,,,,,,,,,,,,
235659,,,,,,,,,,,,,,,,,,,,,,,,,,,,,,,,,,,,,,,,,,,Shrimp Pasta,40139288412332 ,1,9.99,Regular,0,M11504,TRUE,FALSE,fulfilled,TRUE,,,,,,,,,,,,,,,,,,,,,,,,,,,,,,,,
235659,,,,,,,,,,,,,,,,,,,,,,,,,,,,,,,,,,,,,,,,,,,Salmon Sliders with White Rice,40139285659820 ,1,9.99,Regular,0,M11734,TRUE,FALSE,fulfilled,TRUE,,,,,,,,,,,,,,,,,,,,,,,,,,,,,,,,
235659,,,,,,,,,,,,,,,,,,,,,,,,,,,,,,,,,,,,,,,,,,,Beef Sliders with Broccoli & Brown Rice,40139285528748 ,1,9.99,Regular,0,M11726,TRUE,FALSE,fulfilled,TRUE,,,,,,,,,,,,,,,,,,,,,,,,,,,,,,,,
235659,,,,,,,,,,,,,,,,,,,,,,,,,,,,,,,,,,,,,,,,,,,Basil Grilled Chicken,40139288608940 ,1,9.99,Regular,0,M11492,TRUE,FALSE,fulfilled,TRUE,,,,,,,,,,,,,,,,,,,,,,,,,,,,,,,,
234792,bondstacey@msn.com,paid,fulfilled,US,TRUE,,,,,,312-485-2000,www.freshmealplan.com,2021-12-05T20:47:26Z,,,0,,Stacey,312-485-2000,Stacey,Banks,26125 S. Royal Crest Court,,Crete,Illinois,IL,60417,United States,US,,Stacey,312-485-2000,Stacey,Banks,26125 S. Royal Crest Court,,Crete,Illinois,IL,60417,United States,US,Shrimp Pasta,40139288412332 ,5,9.99,Regular,0,M11504,TRUE,FALSE,fulfilled,TRUE,,,,,,,,,,139.86,sale,success,2021-12-05T20:47:26Z,Authorize.Net,,,,0,,,,,,0,0,downsfitness,6.99,fixed_amount,,,,
234792,,,,,,,,,,,,,,,,,,,,,,,,,,,,,,,,,,,,,,,,,,,Basil Grilled Chicken,40139288608940 ,1,9.99,Regular,0,M11492,TRUE,FALSE,fulfilled,TRUE,,,,,,,,,,,,,,,,,,,,,,,,,,,,,,,,
234792,,,,,,,,,,,,,,,,,,,,,,,,,,,,,,,,,,,,,,,,,,,Blueberry French Toast,40139287560364 ,1,9.99,Regular,0,B8019,TRUE,FALSE,fulfilled,TRUE,,,,,,,,,,,,,,,,,,,,,,,,,,,,,,,,
234792,,,,,,,,,,,,,,,,,,,,,,,,,,,,,,,,,,,,,,,,,,,Arizona Grilled Chicken,40139303649452 ,1,9.99,Regular,0,M11580,TRUE,FALSE,fulfilled,TRUE,,,,,,,,,,,,,,,,,,,,,,,,,,,,,,,,
234792,,,,,,,,,,,,,,,,,,,,,,,,,,,,,,,,,,,,,,,,,,,Cantonese Shrimp Lo Mein,40139290837164 ,1,9.99,Regular,0,M8349,TRUE,FALSE,fulfilled,TRUE,,,,,,,,,,,,,,,,,,,,,,,,,,,,,,,,
234792,,,,,,,,,,,,,,,,,,,,,,,,,,,,,,,,,,,,,,,,,,,Loaded Turkey Chili,40139303125164 ,1,9.99,Regular,0,M7937,TRUE,FALSE,fulfilled,TRUE,,,,,,,,,,,,,,,,,,,,,,,,,,,,,,,,
234792,,,,,,,,,,,,,,,,,,,,,,,,,,,,,,,,,,,,,,,,,,,Lemon Pepper Cod,40139288871084 ,3,9.99,Regular,0,M11506,TRUE,FALSE,fulfilled,TRUE,,,,,,,,,,,,,,,,,,,,,,,,,,,,,,,,
234792,,,,,,,,,,,,,,,,,,,,,,,,,,,,,,,,,,,,,,,,,,,Chicken Francaise,40139296309420 ,1,9.99,Regular,0,M11200,TRUE,FALSE,fulfilled,TRUE,,,,,,,,,,,,,,,,,,,,,,,,,,,,,,,,
200704,alyssaonay@gmail.com,paid,fulfilled,US,TRUE,,,,,,678-462-1304,www.freshmealplan.com,2021-06-04T11:04:22Z,,,0,,Alyssa,678-462-1304,Alyssa,Onay,3921 Concord Walk Drive,,SMYRNA,Georgia,GA,30082,United States,US,,Alyssa,6784621304,Alyssa,Onay,3921 Concord Walk Drive,,SMYRNA,Georgia,GA,30082,United States,US,Greek Turkey Burger,40139289755820 ,1,10.95,Regular,0,M4585,TRUE,FALSE,fulfilled,TRUE,,,,,,,,,,92.6,sale,success,2021-06-04T11:04:22Z,Authorize.Net,,,,0,,,,,,0,0,OTF0833,9.26,fixed_amount,,,,
200704,,,,,,,,,,,,,,,,,,,,,,,,,,,,,,,,,,,,,,,,,,,Teriyaki Salmon,40139304927404 ,1,11.95,Regular,0,M11385,TRUE,FALSE,fulfilled,TRUE,,,,,,,,,,,,,,,,,,,,,,,,,,,,,,,,
200704,,,,,,,,,,,,,,,,,,,,,,,,,,,,,,,,,,,,,,,,,,,Keto Lasagna,40139305124012 ,2,11.95,Regular,0,M11386,TRUE,FALSE,fulfilled,TRUE,,,,,,,,,,,,,,,,,,,,,,,,,,,,,,,,
200704,,,,,,,,,,,,,,,,,,,,,,,,,,,,,,,,,,,,,,,,,,,Salmon Sliders with White Rice,40139285659820 ,1,10.95,Regular,0,M11734,TRUE,FALSE,fulfilled,TRUE,,,,,,,,,,,,,,,,,,,,,,,,,,,,,,,,
200704,,,,,,,,,,,,,,,,,,,,,,,,,,,,,,,,,,,,,,,,,,,Salmon Sliders with White Rice,40139285725356 ,1,12.95,XL,0,M11735,TRUE,FALSE,fulfilled,TRUE,,,,,,,,,,,,,,,,,,,,,,,,,,,,,,,,
200704,,,,,,,,,,,,,,,,,,,,,,,,,,,,,,,,,,,,,,,,,,,Chicken Alfredo,40139304566956 ,1,9.95,Regular,0,M11391,TRUE,FALSE,fulfilled,TRUE,,,,,,,,,,,,,,,,,,,,,,,,,,,,,,,,
200704,,,,,,,,,,,,,,,,,,,,,,,,,,,,,,,,,,,,,,,,,,,Argentine Steak,40139289133228 ,1,11.95,Regular,0,M9007,TRUE,FALSE,fulfilled,TRUE,,,,,,,,,,,,,,,,,,,,,,,,,,,,,,,,
